{
    "checksum": "0",
    "allergens": [ 
        {"id": "0", "name": "глютен", "lang": "ru"}, 
        {"id": "0", "name": "gluten", "lang": "en"}, 
        {"id": "0", "name": "cereals", "lang": "en"}, 
        {"id": "0", "name": "wheat", "lang": "en"},
        {"id": "1", "name": "crustaceans", "lang": "en"}, 
        {"id": "1", "name": "ракообразные", "lang": "ru"}, 
        {"id": "2", "name": "яйца","lang": "ru"}, 
        {"id": "2", "name": "eggs", "lang": "en"}, 
        {"id": "3", "name": "рыба", "lang": "ru"},
        {"id": "3", "name": "fish", "lang": "en"},
        {"id": "4", "name": "арахис", "lang": "ru"},
        {"id": "4", "name": "peanuts", "lang": "en"},
        {"id": "5", "name": "соя", "lang": "ru"},
        {"id": "5", "name": "soybeans", "lang": "en"},
        {"id": "6", "name": "молоко", "lang": "ru"},
        {"id": "6", "name": "milk", "lang": "en"},
        {"id": "6", "name": "лактоза", "lang": "ru"},
        {"id": "6", "name": "lactose", "lang": "en"},
        {"id": "7", "name": "сельдерей", "lang": "ru"},
        {"id": "7", "name": "celery", "lang": "en"},
        {"id": "8", "name": "горчица", "lang": "ru"},
        {"id": "8", "name": "mustard", "lang": "en"},
        {"id": "9", "name": "кунжут", "lang": "ru"},
        {"id": "9", "name": "sesame", "lang": "en"},
        {"id": "10", "name": "sulphites", "lang": "en"},
        {"id": "10", "name": "сульфиты", "lang": "ru"},
        {"id": "11", "name": "nuts", "lang": "en"},
        {"id": "11", "name": "орехи", "lang": "ru"},
        {"id": "12", "name": "lupin", "lang": "en"},
        {"id": "12", "name": "люпин", "lang": "ru"},
        {"id": "13", "name": "molluscs", "lang": "en"},
        {"id": "13", "name": "моллюски", "lang": "ru"}
    ]
}